```plantuml

@startuml roles 

skin rose

title Role

scale max 2480*3508

!startsub ML40
class ml40::Role{
  + identifier:ID
  + specialization
}

class ml40::Service
class ml40::DT
class ml40::HMI

class fml40::LogDeliveryNoteService
class ml40::Organisation
class ml40::Person
class ml40::Machine
class ml40::HandheldDevice
class fml40::Wood
class fml40::Forest
class ml40::Site
class ml40::Part
class ml40::Sensor
class ml40::Way
class ml40::TradingPlatform
class ml40::ForwardingAgency
class ml40::Supplier
class ml40::ProductionTeam
class ml40::FBG
class ml40::Drum
class ml40::Crane
class ml40::Crane
class ml40::Scale
class ml40::Engine
class ml40::Tank
class ml40::Band
class ml40::Chain
class ml40::Wheel
class ml40::Rope
class ml40::Winch

class fml40::TractionBands
class fml40::BoogieBands

class fml40::TractionChains

class fml40::SawmillEntryScale
class fml40::SawmillExitScale
class fml40::LogTruckScale

class fml40::TractionWinch
class fml40::SkiddingWinch

class ml40::MachineOperator
class ml40::OperationLeader
class ml40::PrecinctLeader

class ml40::LightSensor
class ml40::SensorNetwork
class ml40::SoilSensor
class ml40::AirSensor
class ml40::Accelerometer
class ml40::Gyroscope
class ml40::SoundSensor
class ml40::GPS
class ml40::IMU
class ml40::CounterSensor
class ml40::PressureSensor
class ml40::TemperatureSensor
class mml40::StrainGauge
class ml40::VehicleCounterSensor

class ml40::RecurePoint

class ml40::MachineUI
class ml40::Dashboard
class ml40::App
class ml40::HMD

class mml40::Cantilever

class fml40::ForestSegment
class fml40::Tree

class fml40::Brushcutter
class fml40::Chainsaw
class fml40::ForestMachine

class fml40::Shipper
class fml40::Forwarder
class fml40::Harvester
class fml40::LogTruck
class ml40::LogStorageBox
class fml40::MiniTractor
class fml40::Skidder
class fml40::WheelLoader
'Neu
class fml40::ClampBankTractor
class fml40::RopePincerTractor

class fml40::ShortLogTruck
class fml40::LongLogTruck

class fml40::BaggerHarvester
class fml40::ChainHarvester
class fml40::WheelHarvester

class fml40::TimberTradingPlatform
class fml40::FundingAgency

class fml40::SawmillEntry
class fml40::SawmillStorageArea
class fml40::SawmillStorageBox
class fml40::SawmillGate
class fml40::LoadBunk
class fml40::ClamBunk
class fml40::FrontBogieLift
class fml40::RearBogieLift
class fml40::FrontGrid
class fml40::HarvestingHead
class fml40::LogLoadingArea
class fml40::StackingShield
class fml40::Grabber
class fml40::Saw
class fml40::LogLoadingUnit
class fml40::Trailer

class fml40::LongLogTrailer

class fml40::ChainsawOperator
class fml40::ForestConsultant
class fml40::ForestOwner
class fml40::ForestWorker
class fml40::LogTruckOperator
class fml40::ChainSawOperator
class fml40::MiniTractorOperator
class fml40::SkidderOperator
class fml40::LogTruckOperator

class fml40::VitalitySensor
class fml40::BarkBeetleSensor

class fml40::ForestEnterprise
class fml40::Hauler
class fml40::Mill
class fml40::MillGate
class fml40::WoodYard
class ml40::Laboratory
class fml40::WoodPileLandingArea
class fml40::WoodPileLandingBox

class fml40::Sawmill
class fml40::Papermill

class fml40::SkidTrail
class fml40::ForestRoad

class fml40::WoodPile
class fml40::LogLoadingUnit
class fml40::StemSegment
class fml40::LooseStack



ml40::Role <|-down- ml40::Service
ml40::Role <|-down- ml40::DT
ml40::Role <|-down- ml40::HMI

ml40::Service <|-down- fml40::LogDeliveryNoteService

ml40::DT <|-down- ml40::Organisation
ml40::DT <|-down- ml40::Person
ml40::DT <|-down- ml40::Machine
ml40::DT <|-down- ml40::HandheldDevice 
ml40::DT <|-down- fml40::Wood
ml40::DT <|-down- fml40::Forest 
ml40::DT <|-down- ml40::Site 
ml40::DT <|-down- ml40::Part 
ml40::DT <|-down- ml40::Sensor
ml40::DT <|-down- ml40::Way

ml40::Organisation <|-down- ml40::TradingPlatform
ml40::Organisation <|-down- ml40::ForwardingAgency
ml40::Organisation <|-down- ml40::Supplier
ml40::Organisation <|-down- ml40::ProductionTeam
ml40::Organisation <|-down- ml40::FBG
ml40::Organisation <|-down- fml40::Shipper

ml40::Part <|-down- ml40::Drum 
ml40::Part <|-down- ml40::Crane 
ml40::Part <|-down- ml40::Scale 
ml40::Part <|-down- ml40::Engine 
ml40::Part <|-down- ml40::Tank 
ml40::Part <|-down- ml40::Band
ml40::Part <|-down- ml40::Chain
ml40::Part <|-down- ml40::Wheel
ml40::Part <|-down- ml40::Rope
ml40::Part <|-down- ml40::Winch 

ml40::Band <|-down- fml40::TractionBands
ml40::Band <|-down- fml40::BoogieBands

ml40::Chain <|-down- fml40::TractionChains

ml40::LogTruckScale <|-down- fml40::SawmillEntryScale
ml40::LogTruckScale <|-down- fml40::SawmillExitScale
ml40::Scale <|-down- fml40::LogTruckScale

ml40::Winch <|-down- fml40::TractionWinch
ml40::Winch <|-down- fml40::SkiddingWinch 

ml40::Person <|-down- ml40::MachineOperator 
ml40::Person <|-down- ml40::OperationLeader
ml40::Person <|-down- ml40::PrecinctLeader

ml40::Sensor <|-down- ml40::LightSensor
ml40::Sensor <|-down- ml40::SensorNetwork 
ml40::Sensor <|-down- ml40::SoilSensor 
ml40::Sensor <|-down- ml40::AirSensor 
ml40::Sensor <|-down- ml40::Accelerometer 
ml40::Sensor <|-down- ml40::Gyroscope 
ml40::Sensor <|-down- ml40::SoundSensor 
ml40::Sensor <|-down- ml40::GPS 
ml40::Sensor <|-down- ml40::IMU 
ml40::Sensor <|-down- ml40::CounterSensor
ml40::Sensor <|-down- ml40::PressureSensor
ml40::Sensor <|-down- ml40::TemperatureSensor 
ml40::Sensor <|-down- mml40::StrainGauge
ml40::CounterSensor <|-down- ml40::VehicleCounterSensor 

ml40::Site <|-down- ml40::RecurePoint 

ml40::HMI <|-down- ml40::MachineUI
ml40::HMI <|-down- ml40::Dashboard
ml40::HMI <|-down- ml40::App
ml40::HMI <|-down- ml40::HMD
!endsub

!startsub MML40
ml40::DT <|-down- mml40::Cantilever 
!endsub


!startsub FML40

fml40::Forest <|-down- fml40::ForestSegment
fml40::Forest <|-down- fml40::Tree

ml40::HandheldDevice <|-down- fml40::Brushcutter
ml40::HandheldDevice <|-down- fml40::Chainsaw
ml40::Machine <|-down- fml40::ForestMachine

fml40::ForestMachine <|-down- fml40::Forwarder
fml40::ForestMachine <|-down- fml40::Harvester
fml40::ForestMachine <|-down- fml40::LogTruck 
fml40::ForestMachine <|-down- fml40::MiniTractor 
fml40::ForestMachine <|-down- fml40::Skidder
fml40::ForestMachine <|-down- fml40::WheelLoader
'Neu
fml40::ForestMachine <|-down- fml40::ClampBankTractor
fml40::ForestMachine <|-down- fml40::RopePincerTractor

fml40::LogTruck <|-down- fml40::ShortLogTruck
fml40::LogTruck <|-down- fml40::LongLogTruck

fml40::Harvester <|-down- fml40::BaggerHarvester
fml40::Harvester <|-down- fml40::ChainHarvester
fml40::Harvester <|-down- fml40::WheelHarvester

ml40::TradingPlatform <|-down- fml40::TimberTradingPlatform
ml40::Organisation <|-down- fml40::FundingAgency

ml40::Part <|-down- fml40::SawmillEntry 
ml40::Part <|-down- fml40::SawmillStorageArea
ml40::Part <|-down- fml40::LogStorageBox
ml40::Part <|-down- fml40::SawmillStorageBox 
ml40::Part <|-down- fml40::SawmillGate 
ml40::Part <|-down- fml40::LoadBunk
ml40::Part <|-down- fml40::ClamBunk
ml40::Part <|-down- fml40::FrontBogieLift
ml40::Part <|-down- fml40::RearBogieLift
ml40::Part <|-down- fml40::FrontGrid 
ml40::Part <|-down- fml40::HarvestingHead 
ml40::Part <|-down- fml40::LogLoadingArea 
ml40::Part <|-down- fml40::StackingShield
ml40::Part <|-down- fml40::Grabber 
ml40::Part <|-down- fml40::Saw 
ml40::Part <|-down- fml40::LogLoadingUnit
ml40::Part <|-down- fml40::Trailer

fml40::Trailer <|-down- fml40::LongLogTrailer

ml40::Person <|-down- fml40::ChainsawOperator 
ml40::Person <|-down- fml40::ForestConsultant
ml40::Person <|-down- fml40::ForestOwner
ml40::Person <|-down- fml40::ForestWorker 
ml40::Person <|-down- fml40::LogTruckOperator   
ml40::MachineOperator <|-down- fml40::ChainSawOperator
ml40::MachineOperator <|-down- fml40::MiniTractorOperator
ml40::MachineOperator <|-down- fml40::SkidderOperator
ml40::MachineOperator <|-down- fml40::LogTruckOperator

ml40::Sensor <|-down- fml40::VitalitySensor 
ml40::Sensor <|-down- fml40::BarkBeetleSensor

ml40::Site <|-down- fml40::ForestEnterprise
ml40::Site <|-down- fml40::Hauler
ml40::Site <|-down- fml40::Mill
ml40::Site <|-down- fml40::MillGate
ml40::Site <|-down- ml40::Laboratory
ml40::Site <|-down- fml40::WoodYard
ml40::Site <|-down- fml40::WoodPileLandingArea 
ml40::Site <|-down- fml40::WoodPileLandingBox

fml40::Mill <|-down- fml40::Sawmill
fml40::Mill <|-down- fml40::Papermill

ml40::Way <|-down- fml40::SkidTrail
ml40::Way <|-down- fml40::ForestRoad

fml40::Wood <|-down- fml40::WoodPile 
fml40::Wood <|-down- fml40::LogLoadingUnit
fml40::Wood <|-down- fml40::StemSegment
fml40::Wood <|-down- fml40::LooseStack
!endsub

!startsub WML40
!endsub

@enduml
```